{
    "KPlugin": {
        "Authors": [
            {
                "Email": "stephane@mankowski.fr",
                "Name": "Stephane MANKOWSKI,miraks",
                "Name[ca@valencia]": "Stephane MANKOWSKI,miraks",
                "Name[ca]": "Stephane MANKOWSKI,miraks",
                "Name[en_GB]": "Stephane MANKOWSKI,miraks",
                "Name[eo]": "Stephane MANKOWSKI,miraks",
                "Name[es]": "Stephane MANKOWSKI,miraks",
                "Name[fi]": "Stephane MANKOWSKI,miraks",
                "Name[fr]": "Stephane MANKOWSKI, miraks",
                "Name[gl]": "Stephane MANKOWSKI, miraks",
                "Name[ia]": "Stephane MANKOWSKI,miraks",
                "Name[it]": "Stephane MANKOWSKI,miraks",
                "Name[ka]": "Stephane MANKOWSKI,miraks",
                "Name[nl]": "Stephane MANKOWSKI,miraks",
                "Name[pl]": "Stephane MANKOWSKI,miraks",
                "Name[pt]": "Stephane MANKOWSKI,miraks",
                "Name[ru]": "Stephane MANKOWSKI,miraks",
                "Name[sl]": "Stephane MANKOWSKI,miraks",
                "Name[sv]": "Stephane MANKOWSKI,miraks",
                "Name[tr]": "Stephane MANKOWSKI,miraks",
                "Name[uk]": "Stephane MANKOWSKI,miraks",
                "Name[x-test]": "xxStephane MANKOWSKI,miraksxx"
            }
        ],
        "Category": "Plugins",
        "Description": "A Skrooge banking assistant plugin.",
        "Description[ca@valencia]": "Un connector d'assistent de banca de Skrooge.",
        "Description[ca]": "Un connector d'assistent de banca de l'Skrooge.",
        "Description[cs]": "Modul bankovního asistenta pro Skrooge.",
        "Description[en_GB]": "A Skrooge banking assistant plugin.",
        "Description[eo]": "Skrooge kromaĵo por banka asistilo",
        "Description[es]": "Complemento de asistente de banca para Skrooge",
        "Description[fi]": "Skroogen pankkiavustajaliitännäinen.",
        "Description[fr]": "Un module externe d'assistant de traitements bancaires pour Skrooge.",
        "Description[gl]": "Un complemento asistente de banca para Skrooge.",
        "Description[it]": "Un'estensione di assistenza bancaria per Skrooge.",
        "Description[ka]": "Skrooge-ის ბანკის დამხმარე დამატება.",
        "Description[nl]": "Een bankierenassistent-plugin voor Skrooge.",
        "Description[pl]": "Wtyczka asystenta bankowości dla Skrooge. ",
        "Description[pt]": "Um 'plugin' do Skrooge de assistência à banca.",
        "Description[ru]": "Модуль банковского помощника Skrooge",
        "Description[sl]": "Vtičnik Skrooge bančnega asistenta.",
        "Description[sv]": "Ett insticksprogram till Skrooge med guide för bankärenden.",
        "Description[tr]": "Bir Varyemez banka işlemleri eklentisi.",
        "Description[uk]": "Додаток банківського помічника Skrooge.",
        "Description[x-test]": "xxA Skrooge banking assistant plugin.xx",
        "EnabledByDefault": true,
        "Icon": "skrooge",
        "Id": "skrooge_bank",
        "License": "GPL",
        "Name": "Skrooge bank plugin",
        "Name[bs]": "Skrooge dodatak za banku",
        "Name[ca@valencia]": "Connector de banca de Skrooge",
        "Name[ca]": "Connector de banca de l'Skrooge",
        "Name[cs]": "Modul Skrooge pro banky",
        "Name[da]": "Skrooge bank-plugin",
        "Name[de]": "Skrooge-Bankmodul",
        "Name[el]": "Skrooge bank plugin",
        "Name[en_GB]": "Skrooge bank plugin",
        "Name[eo]": "Skrooge banka kromaĵo",
        "Name[es]": "Complemento de banco de Skrooge",
        "Name[et]": "Skrooge pangaplugin",
        "Name[fi]": "Skroogen pankkiliitännäinen",
        "Name[fr]": "Moteur externe pour les traitements bancaires",
        "Name[gl]": "Complemento de bancos de Skrooge",
        "Name[hu]": "Skrooge bank bővítmény",
        "Name[it]": "Estensione bancaria di Skrooge",
        "Name[ka]": "Skrooge -ის ბანკის დამატება",
        "Name[lt]": "Skrooge banko papildinys",
        "Name[ms]": "Plugin bank Skrooge",
        "Name[nb]": "Skrooge bankmodul",
        "Name[nds]": "Bankmoduul för Skrooge",
        "Name[nl]": "Plugin voor Skrooge-bank",
        "Name[pl]": "Wtyczka banku dla Skrooge",
        "Name[pt]": "'Plugin' de banca do Skrooge",
        "Name[pt_BR]": "Plugin de banco do Skrooge",
        "Name[ru]": "Модуль банков",
        "Name[sk]": "Plugin bánk Skrooge",
        "Name[sl]": "Vtičnik Skrooge banke",
        "Name[sv]": "Skrooge bankinsticksprogram",
        "Name[tr]": "Varyemez banka eklentisi",
        "Name[uk]": "Додаток банків Skrooge",
        "Name[x-test]": "xxSkrooge bank pluginxx",
        "Name[zh_TW]": "Skrooge 銀行外掛程式",
        "ServiceTypes": [
            "SKG GUI/Plugin"
        ],
        "Version": "1.0",
        "Website": "https://skrooge.org/"
    },
    "X-Krunner-ID": "Skrooge bank plugin"
}
