{
    "KPlugin": {
        "Authors": [
            {
                "Email": "stephane@mankowski.fr",
                "Name": "Stephane MANKOWSKI,miraks",
                "Name[ca@valencia]": "Stephane MANKOWSKI,miraks",
                "Name[ca]": "Stephane MANKOWSKI,miraks",
                "Name[en_GB]": "Stephane MANKOWSKI,miraks",
                "Name[eo]": "Stephane MANKOWSKI,miraks",
                "Name[es]": "Stephane MANKOWSKI,miraks",
                "Name[fi]": "Stephane MANKOWSKI,miraks",
                "Name[fr]": "Stephane MANKOWSKI, miraks",
                "Name[gl]": "Stephane MANKOWSKI, miraks",
                "Name[ia]": "Stephane MANKOWSKI,miraks",
                "Name[it]": "Stephane MANKOWSKI,miraks",
                "Name[ka]": "Stephane MANKOWSKI,miraks",
                "Name[nl]": "Stephane MANKOWSKI,miraks",
                "Name[pl]": "Stephane MANKOWSKI,miraks",
                "Name[pt]": "Stephane MANKOWSKI,miraks",
                "Name[ru]": "Stephane MANKOWSKI,miraks",
                "Name[sl]": "Stephane MANKOWSKI,miraks",
                "Name[sv]": "Stephane MANKOWSKI,miraks",
                "Name[tr]": "Stephane MANKOWSKI,miraks",
                "Name[uk]": "Stephane MANKOWSKI,miraks",
                "Name[x-test]": "xxStephane MANKOWSKI,miraksxx"
            }
        ],
        "Category": "Plugins",
        "Description": "A skrooge plugin to manage budgets",
        "Description[ca@valencia]": "Un connector de Skrooge per a gestionar pressupostos",
        "Description[ca]": "Un connector de l'Skrooge per a gestionar pressupostos",
        "Description[cs]": "Modul správy rozpočtů pro Skrooge",
        "Description[en_GB]": "A skrooge plugin to manage budgets",
        "Description[eo]": "Skrooge kromaĵo por administri buĝetojn",
        "Description[es]": "Complemento de Skrooge para la gestión de presupuestos",
        "Description[fi]": "Skroogen budjetinhallintaliitännäinen",
        "Description[fr]": "Un module externe de gestion de budgets pour Skrooge",
        "Description[gl]": "Un complemento de Skrooge para xestionar orzamentos.",
        "Description[it]": "Un'estensione di Skrooge per gestire i budget",
        "Description[ka]": "Skrooge-ის ბიუჯეტების მართვის დამატება",
        "Description[nl]": "Een skrooge-plugin voor het beheren van budgetten",
        "Description[pl]": "Wtyczka Skrooge do zarządzania budżetami",
        "Description[pt]": "Um 'plugin' do Skrooge para gerir orçamentos.",
        "Description[ru]": "Модуль управления бюджетом",
        "Description[sl]": "Vtičnik Skrooge za upravljanje proračunov",
        "Description[sv]": "Ett insticksprogram till Skrooge för att hantera budgetar",
        "Description[tr]": "Bütçe yönetimi için bir Varyemez eklentisi",
        "Description[uk]": "Додаток до skrooge для керування бюджетами",
        "Description[x-test]": "xxA skrooge plugin to manage budgetsxx",
        "EnabledByDefault": true,
        "Icon": "skrooge",
        "Id": "skrooge_budget",
        "License": "GPL",
        "Name": "Skrooge budget plugin",
        "Name[bs]": "Skrooge dodatak za budžet",
        "Name[ca@valencia]": "Connector de pressupostos de Skrooge",
        "Name[ca]": "Connector de pressupostos de l'Skrooge",
        "Name[cs]": "Modul rozpočtu pro Skrooge",
        "Name[da]": "Budget-plugin til Skrooge",
        "Name[de]": "Skrooge-Budgetmodul",
        "Name[el]": "Skrooge budget plugin",
        "Name[en_GB]": "Skrooge budget plugin",
        "Name[eo]": "Skrooge buĝeta kromaĵo",
        "Name[es]": "Complemento de presupuesto de Skrooge",
        "Name[et]": "Skrooge eelarveplugin",
        "Name[fi]": "Skroogen budjettiliitännäinen",
        "Name[fr]": "Moteur externe pour les budgets",
        "Name[gl]": "Complemento de orzamentos de Skrooge",
        "Name[hu]": "Skrooge költségvetés bővítmény",
        "Name[it]": "Estensione budget di Skrooge",
        "Name[ka]": "Skrooge -ის ბიუჯეტის დამატება",
        "Name[lt]": "Skrooge biudžeto papildinys",
        "Name[nb]": "Skrooge budsjettmodul",
        "Name[nds]": "Finanzplaanmoduul för Skrooge",
        "Name[nl]": "Plugin voor Skrooge-budget",
        "Name[pl]": "Wtyczka budżetu dla Skrooge",
        "Name[pt]": "'Plugin' de orçamentos do Skrooge",
        "Name[pt_BR]": "Plugin de orçamento do Skrooge",
        "Name[ru]": "Модуль бюджета",
        "Name[sk]": "Plugin rozpočtu Skrooge",
        "Name[sl]": "Vtičnik Skrooge proračuna",
        "Name[sv]": "Skrooge budgetinsticksprogram",
        "Name[tr]": "Varyemez bütçe eklentisi",
        "Name[uk]": "Додаток бюджетування Skrooge",
        "Name[x-test]": "xxSkrooge budget pluginxx",
        "Name[zh_TW]": "Skrooge 預算外掛程式",
        "ServiceTypes": [
            "SKG GUI/Plugin"
        ],
        "Version": "1.0",
        "Website": "https://skrooge.org/"
    },
    "X-Krunner-ID": "Skrooge budget plugin"
}
