{
    "KPlugin": {
        "Authors": [
            {
                "Email": "stephane@mankowski.fr",
                "Name": "Stephane MANKOWSKI",
                "Name[ca@valencia]": "Stephane MANKOWSKI",
                "Name[ca]": "Stephane MANKOWSKI",
                "Name[en_GB]": "Stephane MANKOWSKI",
                "Name[eo]": "Stephane MANKOWSKI",
                "Name[es]": "Stephane MANKOWSKI",
                "Name[fi]": "Stephane MANKOWSKI",
                "Name[fr]": "Stephane MANKOWSKI",
                "Name[gl]": "Stephane MANKOWSKI",
                "Name[ia]": "Stephane MANKOWSKI",
                "Name[it]": "Stephane MANKOWSKI",
                "Name[ka]": "Stephane MANKOWSKI",
                "Name[nl]": "Stephane MANKOWSKI",
                "Name[pl]": "Stephane MANKOWSKI",
                "Name[pt]": "Stephane MANKOWSKI",
                "Name[ru]": "Stephane MANKOWSKI",
                "Name[sl]": "Stephane MANKOWSKI",
                "Name[sv]": "Stephane MANKOWSKI",
                "Name[tr]": "Stephane MANKOWSKI",
                "Name[uk]": "Stephane MANKOWSKI",
                "Name[x-test]": "xxStephane MANKOWSKIxx"
            }
        ],
        "Category": "Plugins",
        "Description": "A Skrooge plugin to import GSB files",
        "Description[ca@valencia]": "Un connector de Skrooge per a importar fitxers GSB",
        "Description[ca]": "Un connector de l'Skrooge per a importar fitxers GSB",
        "Description[cs]": "Modul Skrooge pro import souborů GSB",
        "Description[en_GB]": "A Skrooge plugin to import GSB files",
        "Description[eo]": "Skrooge kromaĵo por importi GSB-dosierojn",
        "Description[es]": "Complemento de Skrooge para importar archivos GSB",
        "Description[fi]": "Skroogen GSB-tiedostojen tuontiliitännäinen",
        "Description[fr]": "Un module externe de Skrooge pour l'importation de fichiers « GSB »",
        "Description[gl]": "Un complemento de Skrooge para importar ficheiros GSB.",
        "Description[it]": "Un'estensione di Skrooge per importare i file GSB",
        "Description[ka]": "Skrooge -ის დამატება GSB -ის შემოსატანად",
        "Description[nl]": "Een Skrooge-plugin voor het importeren van GSB-bestanden",
        "Description[pl]": "Wtyczka Skrooge do importu plików GSB",
        "Description[pt]": "Um 'plugin' do Skrooge para importar ficheiros GSB",
        "Description[ru]": "Модуль импорта файлов GSB",
        "Description[sl]": "Vtičnik Skrooge za uvažanje datotek GSB",
        "Description[sv]": "Ett insticksprogram till Skrooge för att importera GSB-filer",
        "Description[tr]": "GSB dosyalarını içe aktarmak için Varyemez eklentisi",
        "Description[uk]": "Додаток до Skrooge для імпортування даних з файлів GSB",
        "Description[x-test]": "xxA Skrooge plugin to import GSB filesxx",
        "EnabledByDefault": true,
        "Icon": "skrooge",
        "Id": "skrooge_import_gsb",
        "License": "GPL",
        "Name": "Skrooge import GSB plugin",
        "Name[bs]": "Skrooge dodatak za GSB uvoz",
        "Name[ca@valencia]": "Connector d'importació de GSB de Skrooge",
        "Name[ca]": "Connector d'importació de GSB de l'Skrooge",
        "Name[cs]": "Modul Skrooge pro import GSB",
        "Name[da]": "Plugin til import af GSB til Skrooge",
        "Name[de]": "Skrooge-GSB-Importmodul",
        "Name[el]": "Skrooge import GSB plugin",
        "Name[en_GB]": "Skrooge import GSB plugin",
        "Name[eo]": "Skrooge import GSB-kromaĵo",
        "Name[es]": "Complemento de importación GSB en Skrooge",
        "Name[et]": "Skrooge GSB impordi plugin",
        "Name[fi]": "Skroogen GSB-tuontiliitännäinen",
        "Name[fr]": "Moteur externe de Skrooge pour l'importation « GSB »",
        "Name[gl]": "Complemento de importación de GSB a Skrooge",
        "Name[hu]": "Skrooge GSB importáló bővítmény",
        "Name[it]": "Estensione di Skrooge per l'importazione GSB",
        "Name[ka]": "Skrooge -ის დამატება GSB -ის შემოსატანად",
        "Name[lt]": "Skrooge GSB importavimo papildinys",
        "Name[nb]": "Skrooge-modul for GSB-import",
        "Name[nl]": "Plugin van Skrooge voor GSB-importeren",
        "Name[pl]": "Wtyczka importu GSB dla Skrooge",
        "Name[pt]": "'Plugin' de importação de GSB do Skrooge",
        "Name[pt_BR]": "Plugin de importação de GSB para o Skrooge",
        "Name[ru]": "Модуль импорта файлов GSB",
        "Name[sk]": "Skrooge plugin GSB import",
        "Name[sl]": "Vtičnik Skrooge uvoza GSB",
        "Name[sv]": "Skrooge GSB-importinsticksprogram",
        "Name[tr]": "Varyemez GSB içe aktarma eklentisi",
        "Name[uk]": "Додаток імпортування GSB до Skrooge",
        "Name[x-test]": "xxSkrooge import GSB pluginxx",
        "Name[zh_TW]": "Skrooge 匯入 GSB 外掛程式",
        "Version": "1.0",
        "Website": "https://skrooge.org/"
    },
    "X-Krunner-ID": "Skrooge import GSB plugin"
}
