{
    "KPlugin": {
        "Authors": [
            {
                "Email": "stephane@mankowski.fr",
                "Name": "Stephane MANKOWSKI",
                "Name[ca@valencia]": "Stephane MANKOWSKI",
                "Name[ca]": "Stephane MANKOWSKI",
                "Name[en_GB]": "Stephane MANKOWSKI",
                "Name[eo]": "Stephane MANKOWSKI",
                "Name[es]": "Stephane MANKOWSKI",
                "Name[fi]": "Stephane MANKOWSKI",
                "Name[fr]": "Stephane MANKOWSKI",
                "Name[gl]": "Stephane MANKOWSKI",
                "Name[ia]": "Stephane MANKOWSKI",
                "Name[it]": "Stephane MANKOWSKI",
                "Name[ka]": "Stephane MANKOWSKI",
                "Name[nl]": "Stephane MANKOWSKI",
                "Name[pl]": "Stephane MANKOWSKI",
                "Name[pt]": "Stephane MANKOWSKI",
                "Name[ru]": "Stephane MANKOWSKI",
                "Name[sl]": "Stephane MANKOWSKI",
                "Name[sv]": "Stephane MANKOWSKI",
                "Name[tr]": "Stephane MANKOWSKI",
                "Name[uk]": "Stephane MANKOWSKI",
                "Name[x-test]": "xxStephane MANKOWSKIxx"
            }
        ],
        "Category": "Plugins",
        "Description": "A Skrooge plugin to import KMY files",
        "Description[ca@valencia]": "Un connector de Skrooge per a importar fitxers KMY",
        "Description[ca]": "Un connector de l'Skrooge per a importar fitxers KMY",
        "Description[cs]": "Modul Skrooge pro import souborů KMY",
        "Description[en_GB]": "A Skrooge plugin to import KMY files",
        "Description[eo]": "Skrooge kromaĵo por importi KMY-dosierojn",
        "Description[es]": "Complemento de Skrooge para importar archivos KMY",
        "Description[fi]": "Skroogen KMY-tiedostojen tuontiliitännäinen",
        "Description[fr]": "Un module externe de Skrooge pour l'importation de fichiers « KMY »",
        "Description[gl]": "Un complemento de Skrooge para importar ficheiros KMY.",
        "Description[it]": "Un'estensione di Skrooge per importare i file KMY",
        "Description[ka]": "Skrooge -ის დამატება KMY -ის შემოსატანად",
        "Description[nl]": "Een Skrooge-plugin voor het importeren van KMY-bestanden",
        "Description[pl]": "Wtyczka Skrooge do importu plików KMY",
        "Description[pt]": "Um 'plugin' do Skrooge para importar ficheiros KMY",
        "Description[ru]": "Модуль импорта файлов KMY",
        "Description[sl]": "Vtičnik Skrooge za uvažanje datotek KMY",
        "Description[sv]": "Ett insticksprogram till Skrooge för att importera KMY-filer",
        "Description[tr]": "KMY dosyalarını içe aktarmak için Varyemez eklentisi",
        "Description[uk]": "Додаток до Skrooge для імпортування даних з файлів KMY",
        "Description[x-test]": "xxA Skrooge plugin to import KMY filesxx",
        "EnabledByDefault": true,
        "Icon": "skrooge",
        "Id": "skrooge_import_kmy",
        "License": "GPL",
        "Name": "Skrooge import KMY plugin",
        "Name[bs]": "Skrooge dodatak za KMY uvoz",
        "Name[ca@valencia]": "Connector d'importació de KMY de Skrooge",
        "Name[ca]": "Connector d'importació de KMY de l'Skrooge",
        "Name[cs]": "Modul Skrooge pro import KMY",
        "Name[da]": "Plugin til import af KMY til Skrooge",
        "Name[de]": "Skrooge-KMY-Importmodul",
        "Name[el]": "Skrooge import KMY plugin",
        "Name[en_GB]": "Skrooge import KMY plugin",
        "Name[eo]": "Skrooge import KMY-kromaĵo",
        "Name[es]": "Complemento de importación KMY en Skrooge",
        "Name[et]": "Skrooge KMY impordi plugin",
        "Name[fi]": "Skroogen KMY-tuontiliitännäinen",
        "Name[fr]": "Moteur externe de Skrooge pour l'importation « KMY »",
        "Name[gl]": "Complemento de importación de KMY a Skrooge",
        "Name[hu]": "Skrooge KMY importáló bővítmény",
        "Name[it]": "Estensione di Skrooge per l'importazione KMY",
        "Name[ka]": "Skrooge -ის დამატება KMY -ის შემოსატანად",
        "Name[lt]": "Skrooge KMY importavimo papildinys",
        "Name[nb]": "Skrooge-modul for KMY-import",
        "Name[nl]": "Plugin van Skrooge voor KMY-importeren",
        "Name[pl]": "Wtyczka importu KMY dla Skrooge",
        "Name[pt]": "'Plugin' de importação de KMY do Skrooge",
        "Name[pt_BR]": "Plugin de importação de KMY para o Skrooge",
        "Name[ru]": "Модуль импорта файлов KMY",
        "Name[sk]": "Skrooge plugin KMY import",
        "Name[sl]": "Vtičnik Skrooge uvoza KMY",
        "Name[sv]": "Skrooge KMY-importinsticksprogram",
        "Name[tr]": "Varyemez KMY içe aktarma eklentisi",
        "Name[uk]": "Додаток імпортування KMY до Skrooge",
        "Name[x-test]": "xxSkrooge import KMY pluginxx",
        "Name[zh_TW]": "Skrooge 匯入 KMY 外掛程式",
        "Version": "1.0",
        "Website": "https://skrooge.org/"
    },
    "X-Krunner-ID": "Skrooge import KMY plugin"
}
