"Date";"Category";"Account";"mode";"quantity";"Price";"Amount";"sign";"unit"
03/13/98;"Transfer from checking";"Sound Shore Fund";"Buy";10;31.3;313;"+";"SSHFX"
06/29/98;"Investment Income: Dividends: Sound Shore Investment: Sound Shore Fund";"Sound Shore Fund";"Reinvest";0.72;29.89;21.52;"+";"SSHFX"
12/29/98;"Investment Income: Dividends: Sound Shore Investment: Sound Shore Fund";"Sound Shore Fund";"Reinvest";1.53;29.29;44.78;"+";"SSHFX"
