{
    "KPlugin": {
        "Authors": [
            {
                "Email": "stephane@mankowski.fr",
                "Name": "Stephane MANKOWSKI",
                "Name[ca@valencia]": "Stephane MANKOWSKI",
                "Name[ca]": "Stephane MANKOWSKI",
                "Name[en_GB]": "Stephane MANKOWSKI",
                "Name[eo]": "Stephane MANKOWSKI",
                "Name[es]": "Stephane MANKOWSKI",
                "Name[fi]": "Stephane MANKOWSKI",
                "Name[fr]": "Stephane MANKOWSKI",
                "Name[gl]": "Stephane MANKOWSKI",
                "Name[ia]": "Stephane MANKOWSKI",
                "Name[it]": "Stephane MANKOWSKI",
                "Name[ka]": "Stephane MANKOWSKI",
                "Name[nl]": "Stephane MANKOWSKI",
                "Name[pl]": "Stephane MANKOWSKI",
                "Name[pt]": "Stephane MANKOWSKI",
                "Name[ru]": "Stephane MANKOWSKI",
                "Name[sl]": "Stephane MANKOWSKI",
                "Name[sv]": "Stephane MANKOWSKI",
                "Name[tr]": "Stephane MANKOWSKI",
                "Name[uk]": "Stephane MANKOWSKI",
                "Name[x-test]": "xxStephane MANKOWSKIxx"
            }
        ],
        "Category": "Plugins",
        "Description": "A Skrooge plugin to import Microsoft Money files",
        "Description[ca@valencia]": "Un connector de Skrooge per a importar fitxers de Microsoft Money",
        "Description[ca]": "Un connector de l'Skrooge per a importar fitxers de Microsoft Money",
        "Description[cs]": "Modul Skrooge pro import souborů Microsoft Money",
        "Description[en_GB]": "A Skrooge plugin to import Microsoft Money files",
        "Description[eo]": "Skrooge kromaĵo por importi Microsoft Money dosierojn",
        "Description[es]": "Complemento de Skrooge para importar archivos de Microsoft Money",
        "Description[fi]": "Skroogen Microsoft Money -tiedostojen tuontiliitännäinen",
        "Description[fr]": "Un module externe de Skrooge pour l'importation de fichiers « Microsoft Money »",
        "Description[gl]": "Un complemento de Skrooge para importar ficheiros Microsoft Money.",
        "Description[it]": "Un'estensione di Skrooge per importare i file Microsoft Money",
        "Description[ka]": "Skrooge-ის დამატება MS Money-ის ფაილების შემოატანად",
        "Description[nl]": "Een Skrooge-plugin voor het importeren van Microsoft Money bestanden",
        "Description[pl]": "Wtyczka Skrooge do importu plików Microsoft Money",
        "Description[pt]": "Um 'plugin' do Skrooge para importar ficheiros do Microsoft Money",
        "Description[ru]": "Модуль импорта файлов Microsoft Money",
        "Description[sl]": "Vtičnik Skrooge za uvažanje datotek Microsoft Money",
        "Description[sv]": "Ett insticksprogram till Skrooge för att importera Microsoft Money-filer",
        "Description[tr]": "Microsoft Money dosyalarını içe aktarmak için bir Varyemez eklentisi",
        "Description[uk]": "Додаток до Skrooge для імпортування даних з файлів Microsoft Money",
        "Description[x-test]": "xxA Skrooge plugin to import Microsoft Money filesxx",
        "EnabledByDefault": true,
        "Icon": "skrooge",
        "Id": "skrooge_import_mny",
        "License": "GPL",
        "Name": "Skrooge import MNY plugin",
        "Name[bs]": "Skrooge dodatak za MNY uvoz",
        "Name[ca@valencia]": "Connector d'importació de MNY de Skrooge",
        "Name[ca]": "Connector d'importació de MNY de l'Skrooge",
        "Name[cs]": "Modul Skrooge pro import MNY",
        "Name[da]": "Plugin til import af MNY til Skrooge",
        "Name[de]": "Skrooge-MNY-Importmodul",
        "Name[el]": "Skrooge import MNY plugin",
        "Name[en_GB]": "Skrooge import MNY plugin",
        "Name[eo]": "Skrooge import MNY kromaĵo",
        "Name[es]": "Complemento de importación MNY en Skrooge",
        "Name[et]": "Skrooge MNY impordi plugin",
        "Name[fi]": "Skroogen MNY-tuontiliitännäinen",
        "Name[fr]": "Moteur externe de Skrooge pour l'importation « MNY »",
        "Name[gl]": "Complemento de importación de MNY a Skrooge",
        "Name[hu]": "Skrooge MNY importáló bővítmény",
        "Name[it]": "Estensione di Skrooge per l'importazione MNY",
        "Name[ka]": "Skrooge -ის დამატება MNY -ის შემოსატანად",
        "Name[nl]": "Plug-in van Skrooge voor MNY-importeren",
        "Name[pl]": "Wtyczka importu MNY dla Skrooge",
        "Name[pt]": "'Plugin' de importação de MNY do Skrooge",
        "Name[pt_BR]": "Plugin de importação de MNY para o Skrooge",
        "Name[ru]": "Модуль импорта файлов MNY",
        "Name[sk]": "Skrooge import MNY plugin",
        "Name[sl]": "Vtičnik Skrooge uvoza MNY",
        "Name[sv]": "Skrooge MNY-importinsticksprogram",
        "Name[tr]": "Varyemez MNY içe aktarma eklentisi",
        "Name[uk]": "Додаток імпортування MNY до Skrooge",
        "Name[x-test]": "xxSkrooge import MNY pluginxx",
        "Name[zh_TW]": "Skrooge 匯入 MNY 外掛程式",
        "Version": "1.0",
        "Website": "https://skrooge.org/"
    },
    "X-Krunner-ID": "Skrooge import MNY plugin"
}
