{
    "KPlugin": {
        "Authors": [
            {
                "Email": "stephane@mankowski.fr",
                "Name": "Stephane MANKOWSKI,miraks",
                "Name[ca@valencia]": "Stephane MANKOWSKI,miraks",
                "Name[ca]": "Stephane MANKOWSKI,miraks",
                "Name[en_GB]": "Stephane MANKOWSKI,miraks",
                "Name[eo]": "Stephane MANKOWSKI,miraks",
                "Name[es]": "Stephane MANKOWSKI,miraks",
                "Name[fi]": "Stephane MANKOWSKI,miraks",
                "Name[fr]": "Stephane MANKOWSKI, miraks",
                "Name[gl]": "Stephane MANKOWSKI, miraks",
                "Name[ia]": "Stephane MANKOWSKI,miraks",
                "Name[it]": "Stephane MANKOWSKI,miraks",
                "Name[ka]": "Stephane MANKOWSKI,miraks",
                "Name[nl]": "Stephane MANKOWSKI,miraks",
                "Name[pl]": "Stephane MANKOWSKI,miraks",
                "Name[pt]": "Stephane MANKOWSKI,miraks",
                "Name[ru]": "Stephane MANKOWSKI,miraks",
                "Name[sl]": "Stephane MANKOWSKI,miraks",
                "Name[sv]": "Stephane MANKOWSKI,miraks",
                "Name[tr]": "Stephane MANKOWSKI,miraks",
                "Name[uk]": "Stephane MANKOWSKI,miraks",
                "Name[x-test]": "xxStephane MANKOWSKI,miraksxx"
            }
        ],
        "Category": "Plugins",
        "Description": "A plugin helping debug",
        "Description[ca@valencia]": "Un connector d'ajuda en la depuració",
        "Description[ca]": "Un connector d'ajuda a la depuració",
        "Description[en_GB]": "A plugin helping debug",
        "Description[eo]": "Kromaĵo helpanta sencimigon",
        "Description[es]": "Complemento de ayuda de depuración",
        "Description[fi]": "Virheenpaikannusta helpottava liitännäinen",
        "Description[fr]": "Un module externe pour l'aide au débogage",
        "Description[gl]": "Un complemento que axuda a depurar.",
        "Description[it]": "Un'estensione per assistere il debugging",
        "Description[ka]": "გამართვის დამხმარე დამატება",
        "Description[nl]": "Een plugin om te helpen bij debugging",
        "Description[pl]": "Wtyczka pomagająca debugować",
        "Description[pt]": "Um 'plugin' para ajudar na depuração",
        "Description[ru]": "Вспомогательный модуль отладки",
        "Description[sl]": "Vtičnik za pomoč pri lovljenju hroščev",
        "Description[sv]": "Ett insticksprogram som hjälper till med felsökning",
        "Description[tr]": "Hata ayıklamaya yardımcı bir eklenti",
        "Description[uk]": "Додаток діагностики вад",
        "Description[x-test]": "xxA plugin helping debugxx",
        "EnabledByDefault": true,
        "Icon": "quickopen",
        "Id": "skg_debug",
        "License": "GPL",
        "Name": "Debug plugin",
        "Name[bs]": "Dodatak za otklanjanje grešaka",
        "Name[ca@valencia]": "Connector de depuració",
        "Name[ca]": "Connector de depuració",
        "Name[cs]": "Ladicí modul",
        "Name[da]": "Fejlsøgnings-plugin",
        "Name[de]": "Debug-Modul",
        "Name[el]": "Debug plugin",
        "Name[en_GB]": "Debug plugin",
        "Name[eo]": "Sencimiga kromaĵo",
        "Name[es]": "Complemento de depuración",
        "Name[et]": "Silumisplugin",
        "Name[fi]": "Virheenpaikannusliitännäinen",
        "Name[fr]": "Moteur externe de débogage",
        "Name[gl]": "Complemento de depuración",
        "Name[hu]": "Hibakereső bővítmény",
        "Name[ia]": "Plugin de Debug (Cribrar)",
        "Name[it]": "Estensione di debug",
        "Name[ka]": "გამართვის მოდული",
        "Name[lt]": "Derinimo papildinys",
        "Name[nb]": "Debug-modul",
        "Name[nds]": "Fehlersöökmoduul",
        "Name[nl]": "Plugin voor debug",
        "Name[pl]": "Wtyczka debugowania",
        "Name[pt]": "'Plugin' de depuração",
        "Name[pt_BR]": "Plugin de depuração",
        "Name[ru]": "Модуль отладки",
        "Name[sk]": "Ladiaci plugin",
        "Name[sl]": "Vtičnik razkrivanja hroščev",
        "Name[sv]": "Felsökningsinsticksprogram",
        "Name[tr]": "Hata ayıklama eklentisi",
        "Name[uk]": "Додаток налагоджування",
        "Name[x-test]": "xxDebug pluginxx",
        "Name[zh_CN]": "调试插件",
        "Name[zh_TW]": "除錯外掛程式",
        "ServiceTypes": [
            "SKG GUI/Plugin"
        ],
        "Version": "1.0",
        "Website": "https://skrooge.org/"
    },
    "X-Krunner-ID": "Debug plugin"
}
