{
    "KPlugin": {
        "Authors": [
            {
                "Email": "stephane@mankowski.fr",
                "Name": "Stephane MANKOWSKI",
                "Name[ca@valencia]": "Stephane MANKOWSKI",
                "Name[ca]": "Stephane MANKOWSKI",
                "Name[en_GB]": "Stephane MANKOWSKI",
                "Name[eo]": "Stephane MANKOWSKI",
                "Name[es]": "Stephane MANKOWSKI",
                "Name[fi]": "Stephane MANKOWSKI",
                "Name[fr]": "Stephane MANKOWSKI",
                "Name[gl]": "Stephane MANKOWSKI",
                "Name[ia]": "Stephane MANKOWSKI",
                "Name[it]": "Stephane MANKOWSKI",
                "Name[ka]": "Stephane MANKOWSKI",
                "Name[nl]": "Stephane MANKOWSKI",
                "Name[pl]": "Stephane MANKOWSKI",
                "Name[pt]": "Stephane MANKOWSKI",
                "Name[ru]": "Stephane MANKOWSKI",
                "Name[sl]": "Stephane MANKOWSKI",
                "Name[sv]": "Stephane MANKOWSKI",
                "Name[tr]": "Stephane MANKOWSKI",
                "Name[uk]": "Stephane MANKOWSKI",
                "Name[x-test]": "xxStephane MANKOWSKIxx"
            }
        ],
        "Category": "Plugins",
        "Description": "A Skrooge plugin to import GNC files",
        "Description[ca@valencia]": "Un connector de Skrooge per a importar fitxers GNC",
        "Description[ca]": "Un connector de l'Skrooge per a importar fitxers GNC",
        "Description[cs]": "Modul Skrooge pro import souborů GNC",
        "Description[en_GB]": "A Skrooge plugin to import GNC files",
        "Description[eo]": "Skrooge kromaĵo por importi GNC-dosierojn",
        "Description[es]": "Complemento de Skrooge para importar archivos GNC",
        "Description[fi]": "Skroogen GNC-tiedostojen tuontiliitännäinen",
        "Description[fr]": "Un module externe de Skrooge pour l'importation de fichiers « GNC »",
        "Description[gl]": "Un complemento de Skrooge para importar ficheiros GNC.",
        "Description[it]": "Un'estensione di Skrooge per importare i file GNC",
        "Description[ka]": "Skrooge -ის დამატება GNC -ის შემოსატანად",
        "Description[nl]": "Een Skrooge-plugin voor het importeren van GNC-bestanden",
        "Description[pl]": "Wtyczka Skrooge do importu plików GNC",
        "Description[pt]": "Um 'plugin' do Skrooge para importar ficheiros GNC",
        "Description[ru]": "Модуль импорта файлов GNC",
        "Description[sl]": "Vtičnik Skrooge za uvažanje datotek GNC",
        "Description[sv]": "Ett insticksprogram till Skrooge för att importera GNC-filer",
        "Description[tr]": "GNC dosyalarını içe aktarmak için Varyemez eklentisi",
        "Description[uk]": "Додаток до Skrooge для імпортування даних з файлів GNC",
        "Description[x-test]": "xxA Skrooge plugin to import GNC filesxx",
        "EnabledByDefault": true,
        "Icon": "skrooge",
        "Id": "skrooge_import_gnc",
        "License": "GPL",
        "Name": "Skrooge import GNC plugin",
        "Name[bs]": "Skrooge dodatak za GNC uvoz",
        "Name[ca@valencia]": "Connector d'importació de GNC de Skrooge",
        "Name[ca]": "Connector d'importació de GNC de l'Skrooge",
        "Name[cs]": "Modul Skrooge pro import GNC",
        "Name[da]": "Plugin til import af GNC til Skrooge",
        "Name[de]": "Skrooge-GNC-Importmodul",
        "Name[el]": "Skrooge import GNC plugin",
        "Name[en_GB]": "Skrooge import GNC plugin",
        "Name[eo]": "Skrooge import GNC-kromaĵo",
        "Name[es]": "Complemento de importación GNC en Skrooge",
        "Name[et]": "Skrooge GNC impordi plugin",
        "Name[fi]": "Skroogen GNC-tuontiliitännäinen",
        "Name[fr]": "Moteur externe de Skrooge pour l'importation « GNC »",
        "Name[gl]": "Complemento de importación de GNC a Skrooge",
        "Name[hu]": "Skrooge GNC importáló bővítmény",
        "Name[it]": "Estensione di Skrooge per l'importazione GNC",
        "Name[ka]": "Skrooge -ის დამატება GNC -ის შემოსატანად",
        "Name[lt]": "Skrooge GNC importavimo papildinys",
        "Name[nb]": "Skrooge-modul for GNC-import",
        "Name[nl]": "Plugin van Skrooge voor importeren van GNC",
        "Name[pl]": "Wtyczka importu GNC dla Skrooge",
        "Name[pt]": "'Plugin' de importação de GNC do Skrooge",
        "Name[pt_BR]": "Plugin de importação de GNC para o Skrooge",
        "Name[ru]": "Модуль импорта файлов GNC",
        "Name[sk]": "Skrooge plugin GNC import",
        "Name[sl]": "Vtičnik Skrooge uvoza GNC",
        "Name[sv]": "Skrooge GNC-importinsticksprogram",
        "Name[tr]": "Varyemez GNC içe aktarma eklentisi",
        "Name[uk]": "Додаток імпортування GNC до Skrooge",
        "Name[x-test]": "xxSkrooge import GNC pluginxx",
        "Name[zh_TW]": "Skrooge 匯入 GNC 外掛程式",
        "Version": "1.0",
        "Website": "https://skrooge.org/"
    },
    "X-Krunner-ID": "Skrooge import GNC plugin"
}
